Chapter 3 Data transformation | Data Visualisation Module
…
NA

NA

NA

Some issues with the structure: * redundant columns: country, iso2, iso3 specify the country. * odd variable names: new_sp_m014:newrel_f65 columns show counts of new TB cases recorded by group. Column names encode three variables that describe the group. * many missing values (NA)

Let’s gather new_sp_m014:newrel_f65 columns and remove missing values

(who1 <- who %>% 
  gather(key = "key", value = "cases", new_sp_m014:newrel_f65, na.rm = TRUE))

## # A tibble: 76,046 x 6
##    country     iso2  iso3   year key         cases
##  * <chr>       <chr> <chr> <int> <chr>       <int>
##  1 Afghanistan AF    AFG    1997 new_sp_m014     0
##  2 Afghanistan AF    AFG    1998 new_sp_m014    30
##  3 Afghanistan AF    AFG    1999 new_sp_m014     8
##  4 Afghanistan AF    AFG    2000 new_sp_m014    52
##  5 Afghanistan AF    AFG    2001 new_sp_m014   129
##  6 Afghanistan AF    AFG    2002 new_sp_m014    90
##  7 Afghanistan AF    AFG    2003 new_sp_m014   127
##  8 Afghanistan AF    AFG    2004 new_sp_m014   139
##  9 Afghanistan AF    AFG    2005 new_sp_m014   151
## 10 Afghanistan AF    AFG    2006 new_sp_m014   193
## # ... with 76,036 more rows
…
sn stands for cases of pulmonary TB that could not be diagnosed by a pulmonary smear (smear negative)

sp stands for smear positive

m stands for males and f stands for female

the remaining number indicates the age group. There are 7 age groups. For example 014 encodes 0-14 years old age group.

Also you may have notices an inconsistency in naming of the key. With or wihtout an underscore line: new_rel and newrel. You can use strings:str_replace() to replace newrel with now_rel to make these value naming consistent.

(who2 <- who1 %>% 
  mutate(key = stringr::str_replace(key, "newrel", "new_rel")))

## # A tibble: 76,046 x 6
##    country     iso2  iso3   year key         cases
##    <chr>       <chr> <chr> <int> <chr>       <int>
##  1 Afghanistan AF    AFG    1997 new_sp_m014     0
##  2 Afghanistan AF    AFG    1998 new_sp_m014    30
##  3 Afghanistan AF    AFG    1999 new_sp_m014     8
##  4 Afghanistan AF    AFG    2000 new_sp_m014    52
##  5 Afghanistan AF    AFG    2001 new_sp_m014   129
##  6 Afghanistan AF    AFG    2002 new_sp_m014    90
##  7 Afghanistan AF    AFG    2003 new_sp_m014   127
##  8 Afghanistan AF    AFG    2004 new_sp_m014   139
##  9 Afghanistan AF    AFG    2005 new_sp_m014   151
## 10 Afghanistan AF    AFG    2006 new_sp_m014   193
## # ... with 76,036 more rows

Now use separate() to split key into 3 columns.

(who3  <- who2 %>% 
  separate(key, into = c("new", "type", "sex-age"), sep ="_"))

## # A tibble: 76,046 x 8
##    country     iso2  iso3   year new   type  `sex-age` cases
##    <chr>       <chr> <chr> <int> <chr> <chr> <chr>     <int>
##  1 Afghanistan AF    AFG    1997 new   sp    m014          0
##  2 Afghanistan AF    AFG    1998 new   sp    m014         30
##  3 Afghanistan AF    AFG    1999 new   sp    m014          8
##  4 Afghanistan AF    AFG    2000 new   sp    m014         52
##  5 Afghanistan AF    AFG    2001 new   sp    m014        129
##  6 Afghanistan AF    AFG    2002 new   sp    m014         90
##  7 Afghanistan AF    AFG    2003 new   sp    m014        127
##  8 Afghanistan AF    AFG    2004 new   sp    m014        139
##  9 Afghanistan AF    AFG    2005 new   sp    m014        151
## 10 Afghanistan AF    AFG    2006 new   sp    m014        193
## # ... with 76,036 more rows

Let’s separate sex-age columns

(who4 <- who3 %>% 
  separate(`sex-age`, into = c("sex", "age"), sep = 1))

## # A tibble: 76,046 x 9
##    country     iso2  iso3   year new   type  sex   age   cases
##    <chr>       <chr> <chr> <int> <chr> <chr> <chr> <chr> <int>
##  1 Afghanistan AF    AFG    1997 new   sp    m     014       0
##  2 Afghanistan AF    AFG    1998 new   sp    m     014      30
##  3 Afghanistan AF    AFG    1999 new   sp    m     014       8
##  4 Afghanistan AF    AFG    2000 new   sp    m     014      52
##  5 Afghanistan AF    AFG    2001 new   sp    m     014     129
##  6 Afghanistan AF    AFG    2002 new   sp    m     014      90
##  7 Afghanistan AF    AFG    2003 new   sp    m     014     127
##  8 Afghanistan AF    AFG    2004 new   sp    m     014     139
##  9 Afghanistan AF    AFG    2005 new   sp    m     014     151
## 10 Afghanistan AF    AFG    2006 new   sp    m     014     193
## # ... with 76,036 more rows
…
